<?xml version="1.0" encoding="utf-8"?>
<!-- Generator: Adobe Illustrator 21.1.0, SVG Export Plug-In . SVG Version: 6.00 Build 0)  -->
<svg version="1.1" id="Layer_1" xmlns="http://www.w3.org/2000/svg" xmlns:xlink="http://www.w3.org/1999/xlink" x="0px" y="0px"
	 viewBox="0 0 1024 162.5" style="enable-background:new 0 0 1024 162.5;" xml:space="preserve">
<style type="text/css">
	.st0{fill:#63C1ED;}
	.st1{fill:#FFFFFF;}
</style>
<g>
	<g>
		<g>
			<path class="st0" d="M80.9,0C66.7,0,52.9,3.8,40.6,10.7C1.7,33.1-11.5,83,10.9,121.8c10.7,18.9,28.4,32.2,49.5,37.9
				c6.9,1.9,13.9,2.8,21.1,2.8c14.2,0,28.1-3.8,40.4-10.7c24.9-14.2,40.4-41,40.7-69.7h-14.8c-0.3,23.3-12.9,45.1-33.1,56.8
				c-10.1,5.7-21.5,8.8-33.1,8.8c-23.7,0-45.7-12.6-57.7-33.1C5.5,82.7,16.6,42,48.1,23.7c9.8-5.7,21.5-8.8,32.8-8.8
				c20.8,0,40.7,9.8,53,26.5l0.6,0.6L65.2,82L72.7,95l77-44.5c3.5-1.9,4.1-5.7,1.9-9.8C136.8,15.5,109.6,0,80.9,0z"/>
		</g>
		<g>
			<path class="st1" d="M81.3,29.3c-9.1,0-18,2.5-25.9,6.9C30.8,50.5,22.3,82.3,36.4,107c6.9,12,18,20.5,31.6,24
				c13.3,3.5,27.4,1.6,39.1-5c15.8-9.1,25.6-25.9,25.9-44.2h-14.8c-0.3,12.9-7.3,24.9-18.3,31.2c-8.5,4.7-18.6,6.3-28.1,3.8
				s-17.4-8.5-22.4-17.4C39.3,81.7,45.3,59,63,48.9c5.7-3.2,12-5,18.3-5s12.3,1.6,18,4.7l7.3-12.9C98.6,31.9,90.1,29.3,81.3,29.3z"
				/>
		</g>
	</g>
	<g>
		<polyline class="st1" points="193.6,136.9 193.6,32.5 257,32.5 257,45.1 208.1,45.1 208.1,76 251.6,76 251.6,88.3 208.1,88.3 
			208.1,124.3 260.8,124.3 260.8,136.9 193.6,136.9 		"/>
		<path class="st1" d="M298,138.2c-8.5-0.3-14.8-2.2-18.3-5.7c-3.5-3.5-5.4-8.8-5.4-16.4V22.7l13.9-2.5v94c0,2.2,0.3,4.1,0.6,5.7
			c0.3,1.6,0.9,2.8,1.9,3.5c0.9,0.9,2.2,1.6,3.5,1.9c1.6,0.3,3.5,0.9,5.7,1.3L298,138.2"/>
		<path class="st1" d="M304.6,97.8c0-6.9,0.9-12.9,3.2-18c1.9-5,4.7-9.5,7.9-12.9c3.2-3.5,7.3-6,11.4-7.6c4.4-1.6,8.8-2.5,13.3-2.5
			c10.4,0,18.6,3.2,24.3,9.8c5.7,6.6,8.5,16.4,8.5,30c0,0.6,0,1.3,0,2.2s0,1.9,0,2.5h-53.6c0.6,8.2,2.8,14.2,6.9,18.6
			c4.1,4.1,10.4,6.3,19.2,6.3c5,0,9.1-0.3,12.3-1.3c3.5-0.9,6-1.6,7.6-2.5l1.9,11.7c-1.6,0.9-4.7,1.9-8.8,2.8
			c-4.4,0.9-9.1,1.6-14.5,1.6c-6.9,0-12.6-0.9-17.7-3.2c-5-2.2-9.1-4.7-12.3-8.5c-3.2-3.5-5.7-7.9-7.3-12.9
			C305.3,109.2,304.6,103.8,304.6,97.8 M358.3,90.2c0-6.3-1.6-11.4-4.7-15.5c-3.2-4.1-7.9-6-13.6-6c-3.2,0-6,0.6-8.5,1.9
			c-2.5,1.3-4.4,2.8-6.3,4.7c-1.6,1.9-3.2,4.4-4.1,6.9s-1.6,5.4-1.9,7.9H358.3z"/>
		<path class="st1" d="M420.4,138.5c-6.3,0-12-0.9-16.7-3.2c-4.7-1.9-8.8-4.7-12-8.5c-3.2-3.5-5.7-7.9-7.3-12.9
			c-1.6-5-2.5-10.4-2.5-16.4s0.9-11.7,2.5-16.4c1.9-5,4.1-9.5,7.6-12.9c3.2-3.8,7.3-6.6,11.7-8.5c4.7-1.9,9.8-3.2,15.5-3.2
			c3.5,0,6.9,0.3,10.4,0.9c3.5,0.6,6.9,1.6,10.1,2.8l-3.2,12c-2.2-0.9-4.4-1.9-7.3-2.5c-2.8-0.6-5.7-0.9-8.8-0.9
			c-7.9,0-13.9,2.5-18,7.3c-4.1,5-6.3,12-6.3,21.5c0,4.1,0.6,8.2,1.6,11.7c0.9,3.5,2.5,6.6,4.4,9.1c2.2,2.5,4.7,4.4,7.9,5.7
			c3.2,1.3,7.3,1.9,11.7,1.9c3.8,0,6.9-0.3,10.1-0.9c3.2-0.6,5.4-1.6,6.9-2.2l2.5,12c-0.9,0.6-1.9,0.9-3.5,1.6
			c-1.6,0.3-3.2,0.9-5,1.3c-1.9,0.3-3.8,0.6-6,0.9C424.5,138.5,422.3,138.5,420.4,138.5"/>
		<path class="st1" d="M468.4,58.7H498v11.7h-29.7v36c0,3.8,0.3,7.3,0.9,9.8c0.6,2.5,1.6,4.4,2.8,6c1.3,1.6,2.8,2.5,4.4,3.2
			c1.9,0.6,3.8,0.9,6.3,0.9c4.1,0,7.6-0.6,10.1-1.6c2.5-0.9,4.4-1.6,5.4-1.9l2.8,11.7c-1.3,0.6-3.8,1.6-7.3,2.5s-7.6,1.6-12,1.6
			c-5.4,0-9.8-0.6-13.3-1.9c-3.5-1.3-6.3-3.5-8.2-6c-2.2-2.8-3.5-6-4.4-10.1c-0.9-4.1-1.3-8.5-1.3-13.9V36.9l13.9-2.5v24.3"/>
		<path class="st1" d="M540.6,57.1c1.3,0,2.5,0,4.1,0.3c1.6,0,3.2,0.3,4.7,0.6c1.6,0.3,2.8,0.6,4.1,0.6c1.3,0.3,2.2,0.6,2.8,0.6
			l-2.5,12.3c-0.9-0.3-2.8-0.9-5.4-1.6c-2.5-0.6-6-0.9-9.8-0.9c-2.5,0-5,0.3-7.9,0.9c-2.5,0.6-4.1,0.9-5,1.3v65.6h-13.9V61.8
			c3.2-1.3,7.6-2.2,12.3-3.5C529,57.4,534.6,57.1,540.6,57.1"/>
		<path class="st1" d="M573.1,44.5c-2.5,0-4.7-0.9-6.3-2.5c-1.9-1.6-2.5-3.8-2.5-6.6s0.9-5,2.5-6.6c1.9-1.6,3.8-2.5,6.3-2.5
			s4.7,0.9,6.3,2.5c1.9,1.6,2.5,3.8,2.5,6.6c0,2.8-0.9,5-2.5,6.6C577.6,43.5,575.7,44.5,573.1,44.5 M580.1,58.7v78.2h-13.9V58.7
			H580.1z"/>
		<path class="st1" d="M628.3,138.5c-6.3,0-12-0.9-16.7-3.2c-4.7-1.9-8.8-4.7-12-8.5c-3.2-3.5-5.7-7.9-7.3-12.9
			c-1.6-5-2.5-10.4-2.5-16.4s0.9-11.7,2.5-16.4c1.9-5,4.1-9.5,7.6-12.9c3.2-3.8,7.3-6.6,11.7-8.5c4.7-1.9,9.8-3.2,15.5-3.2
			c3.5,0,6.9,0.3,10.4,0.9c3.5,0.6,6.9,1.6,10.1,2.8l-3.2,12c-2.2-0.9-4.4-1.9-7.3-2.5c-2.8-0.6-5.7-0.9-8.8-0.9
			c-7.9,0-13.9,2.5-18,7.3c-4.1,5-6.3,12-6.3,21.5c0,4.1,0.6,8.2,1.6,11.7c0.9,3.5,2.5,6.6,4.4,9.1c1.9,2.5,4.7,4.4,7.9,5.7
			c3.2,1.3,7.3,1.9,11.7,1.9c3.8,0,6.9-0.3,10.1-0.9c3.2-0.6,5.4-1.6,6.9-2.2l2.8,12c-0.9,0.6-1.9,0.9-3.5,1.6
			c-1.6,0.3-3.2,0.9-5,1.3c-1.9,0.3-3.8,0.6-6,0.9C632.5,138.5,630.6,138.5,628.3,138.5"/>
		<path class="st1" d="M723.9,139.1c-7.3,0-13.9-1.3-19.9-3.5c-6-2.5-11-6-15.5-10.4c-4.4-4.7-7.6-10.4-10.1-17
			c-2.2-6.6-3.5-14.5-3.5-23.3s1.3-16.4,4.1-23.3c2.5-6.6,6.3-12.3,10.7-17c4.4-4.7,9.8-8.2,15.8-10.4c6-2.5,12.3-3.5,19.2-3.5
			c4.4,0,8.2,0.3,11.7,0.9c3.5,0.6,6.3,1.3,9.1,2.2c2.5,0.9,4.7,1.6,6.3,2.5c1.6,0.9,2.8,1.3,3.2,1.9l-4.1,12
			c-0.9-0.6-2.2-1.3-3.8-1.9c-1.6-0.6-3.8-1.3-5.7-2.2c-2.2-0.6-4.4-1.3-6.9-1.6s-5-0.6-7.9-0.6c-5.4,0-10.4,0.9-14.8,2.8
			c-4.4,1.9-8.2,4.7-11.4,8.2c-3.2,3.5-5.4,7.9-7.3,13.3c-1.6,5-2.5,11-2.5,17.4c0,6.3,0.6,12,2.2,17c1.6,5,3.8,9.5,6.6,13.3
			s6.6,6.6,11,8.5c4.4,1.9,9.5,3.2,15.1,3.2c6.6,0,12.3-0.6,16.7-2.2c4.4-1.3,7.6-2.5,9.8-3.8l3.8,12c-0.6,0.6-1.9,1.3-3.8,1.9
			c-1.9,0.6-4.1,1.6-6.6,2.2c-2.8,0.6-6,1.3-9.5,1.9C731.8,138.8,728.1,139.1,723.9,139.1"/>
		<path class="st1" d="M791.2,138.2c-8.5-0.3-14.8-2.2-18.3-5.7c-3.5-3.5-5.4-8.8-5.4-16.4V22.7l13.9-2.5v94c0,2.2,0.3,4.1,0.6,5.7
			c0.3,1.6,0.9,2.8,1.9,3.5c0.9,0.9,2.2,1.6,3.5,1.9c1.6,0.3,3.5,0.9,5.7,1.3L791.2,138.2"/>
		<path class="st1" d="M869.7,97.8c0,6.3-0.9,11.7-2.8,16.7c-1.9,5-4.4,9.5-7.6,12.9c-3.2,3.5-7.3,6.3-11.7,8.2
			c-4.4,1.9-9.5,2.8-14.8,2.8c-5.4,0-10.1-0.9-14.8-2.8c-4.4-1.9-8.5-4.7-11.7-8.2c-3.2-3.5-5.7-7.9-7.6-12.9
			c-1.9-5-2.8-10.7-2.8-16.7c0-6,0.9-11.7,2.8-16.7c1.9-5,4.4-9.5,7.6-12.9c3.2-3.5,7.3-6.3,11.7-8.2c4.4-1.9,9.5-2.8,14.8-2.8
			c5.4,0,10.1,0.9,14.8,2.8c4.4,1.9,8.5,4.7,11.7,8.2c3.2,3.5,5.7,7.9,7.6,12.9C868.8,86.1,869.7,91.5,869.7,97.8 M855.2,97.8
			c0-8.8-1.9-15.8-6-20.8c-4.1-5-9.5-7.9-16.1-7.9c-6.9,0-12.3,2.5-16.1,7.9c-4.1,5-6,12.3-6,20.8c0,8.8,1.9,15.8,6,20.8
			s9.5,7.9,16.1,7.9c6.9,0,12.3-2.5,16.1-7.9C853,113.6,855.2,106.6,855.2,97.8z"/>
		<path class="st1" d="M943.5,134.4c-3.2,0.9-7.6,1.6-12.6,2.5c-5.4,0.9-11.4,1.3-18.3,1.3c-6,0-11-0.9-15.1-2.5
			c-4.1-1.9-7.6-4.1-9.8-7.6c-2.5-3.2-4.4-6.9-5.4-11.4c-1.3-4.4-1.6-9.1-1.6-14.5V58.7h13.9v41c0,9.5,1.6,16.4,4.4,20.5
			c3.2,4.1,8.2,6.3,15.1,6.3c1.6,0,3.2,0,4.7,0s3.2-0.3,4.4-0.3s2.5-0.3,3.8-0.3c1.3,0,1.9-0.3,2.5-0.6V58.7h13.9L943.5,134.4"/>
		<path class="st1" d="M1010.1,22.7l13.9-2.5v114.5c-3.2,0.9-7.3,1.9-12.3,2.8c-5,0.9-10.7,1.3-17.4,1.3c-6,0-11.4-0.9-16.1-2.8
			c-4.7-1.9-8.8-4.7-12.3-8.2c-3.5-3.5-6-7.9-7.9-12.9s-2.8-10.7-2.8-17c0-6,0.6-11.7,2.2-16.4c1.6-5,3.8-9.5,6.9-12.9
			c3.2-3.5,6.6-6.3,11-8.5c4.4-1.9,9.5-3.2,14.8-3.2c4.4,0,8.5,0.6,12,1.9c3.5,1.3,6,2.2,7.9,3.5L1010.1,22.7 M1010.1,75.1
			c-1.6-1.3-4.1-2.8-7.3-4.1c-3.2-1.3-6.6-1.9-10.4-1.9c-4.1,0-7.6,0.6-10.4,2.2c-2.8,1.6-5,3.5-6.9,6c-1.9,2.5-3.2,5.7-3.8,9.1
			c-0.9,3.5-1.3,7.3-1.3,11.4c0,9.1,2.2,16.1,6.6,21.1c4.4,5,10.4,7.6,18,7.6c3.8,0,6.9-0.3,9.5-0.6c2.5-0.3,4.4-0.6,6-1.3
			L1010.1,75.1L1010.1,75.1z"/>
	</g>
</g>
</svg>
