<?xml version="1.0" encoding="utf-8"?>
<!-- Generator: Adobe Illustrator 21.1.0, SVG Export Plug-In . SVG Version: 6.00 Build 0)  -->
<svg version="1.1" id="Layer_1" xmlns="http://www.w3.org/2000/svg" xmlns:xlink="http://www.w3.org/1999/xlink" x="0px" y="0px"
	 viewBox="0 0 1024 301.1" style="enable-background:new 0 0 1024 301.1;" xml:space="preserve">
<style type="text/css">
	.st0{fill:#FFFFFF;}
	.st1{fill:#45B6E8;}
</style>
<g>
	<path class="st0" d="M723.9,142.4c-9.4,0-17.8,0-26.2,0c-1.6,0-2.2,0.5-2.3,2.2c-0.2,3-0.9,5.9-1.2,8.8c-0.1,1.6-0.8,2-2.2,1.9
		c-7.3,0-14.7,0-22,0c-1.5,0-2-0.6-2-2.1c0-11.6,0.1-23.2,0-34.8c0-2.4,1.4-2.1,2.9-2.1c14.7,0,29.4,0,44.1,0
		c16.3,0,32.6,0.1,48.8-0.1c2.9,0,3.9,0.7,3.8,3.7c-0.2,6.5-0.1,13,0,19.5c0,1.8-0.4,3.2-1.8,4.5c-17.1,16.1-34.2,32.2-51.3,48.3
		c-1.2,1.2-2.6,2.2-3.4,3.7c0.5,1,1.3,0.6,2,0.6c7.8,0,15.5,0,23.3,0.1c2.3,0,3.4-0.6,3.2-3c-0.1-0.8,0.3-1.7,0.4-2.5
		c0.3-2.5-0.3-5.9,1.4-7.2c2-1.6,5.3-0.5,8.1-0.5c5.4-0.1,10.9,0,16.3-0.1c1.9,0,2.6,0.5,2.6,2.5c-0.1,11.5-0.1,23,0,34.5
		c0,2.1-0.9,2.5-2.7,2.5c-32.2,0-64.5,0-96.7,0c-2,0-2.9-0.6-2.9-2.7c0.1-7.2,0.1-14.5,0-21.7c0-1.6,0.6-2.6,1.7-3.6
		c13.3-12.4,26.5-24.9,39.8-37.3C712.7,152.7,717.9,147.9,723.9,142.4z"/>
	<path class="st0" d="M375.4,130.9c0,18.1,0,36.2,0,54.3c0,5.8,3.4,9.3,9.2,9.6c2.6,0.1,5.1,0.2,7.7,0c1.9-0.1,2.6,0.8,2.9,2.5
		c1.1,7,2.1,14.1,3.4,21c0.4,2.3-0.4,2.8-2.1,3.3c-4.2,1.3-8.4,2.3-12.7,2.7c-8.2,0.9-16.5,1.7-24.7-0.3c-13.9-3.4-22-13.5-22-27.8
		c0-30.4-0.1-60.9,0.1-91.3c0-3.3-0.9-4.4-4.1-4.2c-1.3,0.1-2.7-0.3-4.1-0.5c-4.5-0.6-4.5-0.6-4.5-5.3c0-6.4,0.1-12.8,0-19.2
		c0-2.4,0.8-3.1,3.1-3.1c15,0.1,30,0.1,45,0c2.5,0,3,0.9,3,3.2C375.4,94.3,375.4,112.6,375.4,130.9z"/>
	<path class="st0" d="M885.7,155.5c0,11.9,0.1,23.8-0.1,35.8c0,2.6,1,3.3,3.3,3.5c2.2,0.2,4.4,0.6,6.6,0.6c2.1,0,2.4,1.1,2.4,2.8
		c-0.1,7.3-0.1,14.7,0,22c0,2.1-0.7,2.7-2.8,2.7c-19-0.1-38.1-0.1-57.1,0c-2.2,0-3-0.6-2.9-2.9c0.1-7.2,0.1-14.5,0-21.7
		c0-1.9,0.3-2.9,2.6-3c2.3,0,4.6-0.5,7-0.7c2.1-0.2,2.8-1.1,2.7-3.3c-0.1-13.6-0.1-27.2-0.1-40.9c0-5.6,0-5.6-5.6-6.2
		c-6.5-0.7-6.5-0.7-6.5-7.4c0-6,0.1-11.9,0-17.9c0-2.1,0.6-2.8,2.7-2.8c15.1,0.1,30.2,0.1,45.3,0c2.2,0,2.6,0.8,2.6,2.8
		C885.7,131.2,885.7,143.3,885.7,155.5z"/>
	<path class="st0" d="M866.4,102.2c-3.1,0-6.2,0.1-9.3,0c-6.1-0.2-9.5-2.7-10.1-8.8c-0.5-5.3-0.5-10.6,0-15.9
		c0.5-5.6,3.8-8.5,10.2-8.9c6.8-0.4,13.6-0.7,20.4,0.3c5.5,0.8,8.7,4.4,8.8,9.9c0.1,4.6,0.1,9.1,0,13.7c-0.2,5.8-4,9.5-9.7,9.7
		C873.2,102.3,869.8,102.2,866.4,102.2C866.4,102.2,866.4,102.2,866.4,102.2z"/>
	<path class="st0" d="M819.9,204.9c-0.2,3.7,0.6,7.8-1.2,11.8c-1.6,3.5-4.1,5.2-7.8,5.5c-5.4,0.4-10.8,0.4-16.2,0.2
		c-7.4-0.3-10-4-10.7-9.4c-0.7-6-0.9-12.1,0.1-18.1c0.8-4.6,3.3-7.7,8.3-8.2c6.3-0.6,12.5-0.7,18.8,0c5.5,0.7,8.4,4.4,8.7,10
		C820,199.4,819.9,202,819.9,204.9z"/>
	<path class="st1" d="M126.3,215.9c0-11.5,0-22.5,0-33.5c0-8-0.1-16,0-24c0-2.1-0.5-3.4-2.5-4.6C83.6,130.3,43.4,106.5,3.1,82.8
		c-3.9-2.3-3.8-2.2-1.7-6.2c1.9-3.6,4.9-6.1,8.3-8.1c33.5-19.3,67.1-38.7,100.6-58c4.9-2.8,9.7-5.7,14.7-8.4
		c5.3-2.9,10.7-2.6,15.8,0.3c24.2,13.9,48.3,27.9,72.4,41.8c14.3,8.2,28.5,16.5,42.8,24.7c6.1,3.5,8.9,8.6,8.9,15.7
		c-0.1,44-0.1,87.9,0,131.9c0,7.5-3.1,12.5-9.3,16.1c-29,16.7-58,33.5-87,50.3c-9,5.2-18.1,10.4-27.1,15.6c-6,3.5-11.9,3.5-17.8,0.1
		c-38-22-76.1-43.9-114.1-65.9c-6.2-3.6-9.5-8.5-9.5-16.1c0.2-22.7,0.1-45.4,0.1-68c0-1.1-0.6-2.6,0.5-3.3c1.3-0.8,2.3,0.6,3.4,1.2
		C39,166.2,73.8,186,108.5,205.8C114.2,209,120,212.3,126.3,215.9z M12.5,167.3c0,16.6,0,33.2,0,49.8c0,2.6,1.4,3.8,3.3,4.9
		c37.7,21.8,75.3,43.5,113,65.3c2.9,1.7,5.2,1.5,8-0.1c14.6-8.6,29.3-17,43.9-25.4c22.8-13.1,45.5-26.3,68.3-39.4
		c2.5-1.4,4-2.9,4-6.2c-0.1-43.9-0.1-87.7,0-131.6c0-2.7-1-4.2-3.3-5.5c-37.7-21.7-75.4-43.5-113-65.3c-2.7-1.5-4.8-1.7-7.6,0
		C97.7,31.9,66.5,49.9,35.2,67.9c-5.4,3.1-10.8,6.3-16.4,9.5c0.6,0.5,0.8,0.8,1.2,1c15,8.8,30.1,17.6,45.1,26.5
		c1.3,0.7,2.1,0.4,3.2-0.2c19.3-11.2,38.7-22.4,58-33.5c4.2-2.4,8.5-2.4,12.7,0.1c2.5,1.4,5,2.9,7.5,4.3
		c17.2,10,34.4,19.9,51.6,29.9c3.8,2.2,6.4,5.4,6.4,10c0,22.5,0,44.9,0,67.4c0,5.5-1.6,10.1-6.8,13.1
		c-19.8,11.3-39.4,22.7-59.2,34.1c-4,2.3-8.1,2.3-12.1,0c-33.3-18.9-66.5-37.9-99.8-56.8c-4.6-2.6-9.2-5.2-14.1-7.9
		C12.6,166.3,12.5,166.8,12.5,167.3z M129.4,143.1c1.7,1,3,0.4,4.4-0.4c14.2-8.1,28.5-16.1,42.8-24.2c3.2-1.8,6.6-3.3,9.7-5.8
		c-1.1-0.7-2-1.2-2.9-1.8c-16-9.2-32.1-18.4-48.1-27.7c-2-1.2-3.5-1.2-5.4,0c-10.5,6.2-21.1,12.3-31.7,18.5
		c-6.3,3.7-12.6,7.4-19.5,11.4C96,123.3,112.7,133.2,129.4,143.1z M190.3,124.8c-16.8,9.5-33.5,18.9-50.3,28.3
		c-1.5,0.8-1.7,1.9-1.7,3.4c0,18.9,0,37.9,0,56.8c0,2.1,0.2,3,2.5,1.6c16.1-9.4,32.3-18.8,48.6-28.1c2-1.1,2.8-2.4,2.8-4.8
		c-0.1-18.3-0.1-36.6-0.1-54.9c0-0.9,0.3-1.9-0.4-2.9C191.3,124.4,190.8,124.5,190.3,124.8z"/>
	<path class="st0" d="M636.6,140.5c3,4.4,5.1,8.6,5,13.6c-0.1,15.9-8.4,26.7-23.7,31.1c-13.1,3.7-26.5,4.5-40.1,3.4
		c-1.7-0.1-3.4-0.1-5.1-0.1c-1.6,0-3,0.4-3.3,2.3c-0.3,1.8,0.3,3.1,2,3.9c3.8,1.7,8,1.9,12.1,2.8c13.2,2.6,26.7,3.7,39.6,7.6
		c15.6,4.7,22.5,16.1,20.6,32.4c-1.5,12.7-8.8,20-20.4,23.9c-8.5,2.8-17.3,4.2-26.2,4.5c-11.9,0.4-23.8,0.3-35.6-0.7
		c-8.2-0.7-16.4-2.1-24.6-3.1c-1.5-0.2-1.9-0.8-1.9-2.2c0-7.2,0.1-14.5,0-21.7c0-1.8,0.6-2.4,2.4-2.3c8.1,0.6,16.1,1.1,24.2,1.5
		c12.6,0.6,25.3,1,37.9-0.3c2.6-0.3,5-1.2,5.2-4.5c0.2-3.5-2.4-4.4-4.9-4.9c-9.6-1.9-19.2-3.5-28.8-5.2c-5.7-1-11.6-1.7-17-3.8
		c-12-4.6-16.6-15.4-13.8-26c0.9-3.4,3-6.1,5.5-8.5c1.4-1.4,1.9-2.2-0.2-3.5c-12.6-7.9-15.2-19.9-13.8-33.5
		c1.5-15.1,10.5-23.4,24.7-27.1c7.6-2,15.2-2.8,23-3.1c23.6-0.9,47.2-0.1,70.8-0.5c3-0.1,3.8,0.9,3.7,3.7c-0.2,5.7-0.2,11.5,0,17.2
		c0.1,2.8-0.9,3.4-3.4,3.3C646,140.3,641.6,140.5,636.6,140.5z M579.5,166.2c5.1,1.1,10.3,1.1,15.4,0c2.7-0.6,4.7-2.3,6-4.9
		c3.2-6.6,2.3-13.2-0.5-19.7c-0.5-1.1-1.4-1.1-2.4-1.1c-4.7,0-9.4-0.2-14,0.2c-9.8,0.7-12.4,3.4-12.5,12.3
		C570.6,159.6,574.6,165.1,579.5,166.2z"/>
	<path class="st0" d="M463.4,113.6c10.4-0.2,20.2,0.5,29.6,3.5c13.8,4.5,22.3,13.8,25.6,27.9c3.7,16,3.7,32,0.3,48
		c-3.4,15.7-13.2,25.7-28.9,29.3c-17.7,4.1-35.6,4-53.3-0.3c-15.9-3.9-25.6-14.2-29-30.4c-3.4-16.3-3.3-32.5,1.1-48.5
		c3.8-13.7,13-22.3,26.6-26.3C444.7,114.1,454.3,113.4,463.4,113.6z M446.9,184.2c1.1,6.2,2.9,12.7,12.5,13.6c4.5,0.4,9,0.8,13.2-1
		c6-2.6,6.8-8.3,7.5-13.8c1.1-9.1,1-18.3,0-27.4c-0.7-5.9-1.9-11.9-8.7-14c-3.5-1.1-7.2-1-11-0.7c-7.6,0.8-11,3.3-12.9,10.9
		c-1.5,5.7-1.3,11.6-1.3,17.9C446.3,174.3,446,179.3,446.9,184.2z"/>
	<path class="st0" d="M966.4,113.6c9.9-0.3,19.4,0.5,28.6,3.3c14.2,4.5,22.9,14.1,26.2,28.6c3.8,16.5,3.8,33.1-0.4,49.5
		c-4,15.5-14.7,24.4-30.1,27.8c-7,1.6-14,2-21.2,2.1c-9.2,0.1-18.4-0.1-27.5-2.1c-17.7-3.8-28.7-14.2-32.2-32.3
		c-3-15.6-3-31.1,0.9-46.4c4.3-16.5,15.8-25.3,32-28.7C950.8,114,958.7,113.4,966.4,113.6z M949.1,182.6c0.7,5.9,1.9,12.1,8.7,14.3
		c4.4,1.5,9,1.3,13.5,0.8c5.8-0.6,8.8-4.1,10.3-9.4c1.1-3.9,1-8,1.4-12c0.9-8.2,0.2-16.3-1.1-24.4c-1.2-7.5-4.4-9.9-12.2-11
		c-2.5-0.4-4.8-0.1-7.3,0.1c-7.5,0.6-11.7,4.3-12.8,11.7c-0.8,5.6-1.4,11.2-1.3,17.3C948,174,948.6,178.3,949.1,182.6z"/>
</g>
</svg>
