<?xml version="1.0" encoding="utf-8"?>
<!-- Generator: Adobe Illustrator 21.1.0, SVG Export Plug-In . SVG Version: 6.00 Build 0)  -->
<svg version="1.1" id="Layer_1" xmlns="http://www.w3.org/2000/svg" xmlns:xlink="http://www.w3.org/1999/xlink" x="0px" y="0px"
	 viewBox="0 0 1024 211.5" style="enable-background:new 0 0 1024 211.5;" xml:space="preserve">
<style type="text/css">
	.st0{fill:#79C5E0;}
	.st1{fill:#F26F5E;}
</style>
<g>
	<g>
		<path class="st0" d="M318,100.2v43.7c0,5.2-4.3,8.1-8.5,8.1c-3.8,0-7.1-3-7.1-8.1V77.4c0-6.1,5.2-8.1,7.1-8.1c3.4,0,5.4,2,7.4,4.3
			l26,35.1l26.9-36.4c3.9-4.8,13.5-3,13.5,5.2v66.5c0,5.2-3.3,8.1-7.1,8.1c-4.3,0-7.6-3-7.6-8.1v-43.7L349.1,125
			c-4.3,5.2-9.6,5.2-13.5,0L318,100.2z"/>
		<path class="st0" d="M450.2,153.2c-21.8,0.9-44.5-13.6-44.5-42.5c0-29.1,22.7-43.3,44.5-43.3c20.7,1.1,42.3,15.4,42.3,43.3
			C492.4,138.7,470.8,153.2,450.2,153.2z M448.9,82.7c-13.2,0-27.6,9.3-27.6,28c0,18.5,14.4,28,27.6,28c13.6,0,28.1-9.4,28.1-28
			C477,92.1,462.5,82.7,448.9,82.7z"/>
		<path class="st0" d="M531.4,144.4c0,10.3-15.7,10.6-15.7,0.2V77.5c0-4.1,3.2-7.2,7.1-7.2h31.4c30,0,36.1,40.2,11.1,50.2l15.7,19.1
			c6.1,9.1-6.1,17.8-13.2,8.9L550,123h-18.5V144.4z M531.4,109.4h22.8c15.4,0,16.3-24.8,0-24.8h-22.8V109.4z"/>
		<path class="st0" d="M604.5,77.4c0-3.9,3.1-8.1,8-8.1h27.3c15.4,0,29.2,10.3,29.2,30c0,18.7-13.8,29-29.2,29h-19.7v15.6
			c0,5.2-3.3,8.1-7.6,8.1c-3.9,0-8-3-8-8.1V77.4z M620.1,84.2v29.4h19.7c7.9,0,14.2-7,14.2-14.3c0-8.3-6.3-15.1-14.2-15.1H620.1z"/>
		<path class="st0" d="M690.5,144.7V77.7c0-4.3,3.1-7.3,8.4-7.3c4.1,0,7.2,3.1,7.2,7.3v25.7h38.5V77.7c0-4.3,3.8-7.3,8-7.3
			c4.1,0,7.3,3.1,7.3,7.3v67.1c0,4.1-3.2,7.3-7.3,7.3c-4.3,0-8-3.2-8-7.3v-25.9h-38.5v25.9c0,4.1-3.1,7.3-7.2,7.3
			C693.6,152.1,690.5,148.9,690.5,144.7z"/>
		<path class="st0" d="M792.4,152.1c-4.1,0-7.3-3.2-7.3-7.3V77.7c0-4.3,3.2-7.3,7.3-7.3h42.4c10.9,0,10.6,15.4,0,15.4h-34v17.7h29.8
			c10.5,0,10.5,15.5,0,15.5h-29.8v17.7h36c10.7,0,11.6,15.5,0,15.5L792.4,152.1L792.4,152.1z"/>
		<path class="st0" d="M922.3,78.1c0-10.5,15.5-11.3,15.5,0v42.7c0,44.2-71.2,44.2-71.2,0V78.1c0-10.6,15.5-11.1,15.5,0v42.7
			c0,23.3,40.3,24.7,40.3,0V78.1z"/>
		<path class="st0" d="M961.6,88c2.7-22.9,37.3-27,53.6-14.5c8,6.5-0.5,16.8-7.6,11.6c-8.7-5.6-28.6-8.1-31.1,4.1
			c-3.2,19.4,48.2,8.3,47.4,39.7c-0.8,30-44.3,30.7-60.6,17.2c-3.9-3.2-3.8-8.4-1.7-11.6c3.1-3.1,6.5-4.1,10.5-0.8
			c9.7,6.6,34.6,11.6,36.4-5.2C1007.1,111.1,958,121.6,961.6,88z"/>
	</g>
	<path class="st0" d="M208.8,132.3c-11.5,46.3-53.6,79.2-103.2,79.2c-49.8,0-91.6-34.9-102.6-81.3c13.3,0,25.7,0.1,31.5,0.1
		c2.7,0,3.2,0,3.4,0c4.3-0.2,9.8-1.6,13.4-10.4l13.8-36.1l30.6,73.7c2.8,5.9,7.3,5.5,10.1,5.5h0.3c5.3,0,7.7-1.9,9.7-5.7l34.6-72.9
		l11.8,32.8l0.7,1.6c2.5,5.5,4.3,10.9,10.5,11.6c1.3,0.1,16-0.1,36-0.1C209.1,130.2,209.1,130.4,208.8,132.3z"/>
	<path class="st1" d="M212.1,105.1c0,0.6,0,1.9,0,1.9h0h-31.8l-18.5-51.8c-1.7-3.9-4.1-9.6-11.4-9.6c-4.4,0-8.4,3.7-10.7,9.7
		l-33.6,77.9L73.7,55.8c-3.2-6.9-5.4-10.1-11.7-10.1c-4.3,0-7.5,1.6-10.9,9.7l-19.2,52.4l-31.9,0c0-0.8,0-1.6,0-2.4
		C0,47.1,47.2,0,105.5,0S212.1,46.8,212.1,105.1z"/>
</g>
</svg>
